/home/sadnana/Downloads/dev/SADIServiceGenerator/src/main/java/ca/unbsj/cbakerlab/codegenerator/ServiceCodeGenerator.java
/home/sadnana/Downloads/dev/SADIServiceGenerator/src/main/java/ca/unbsj/cbakerlab/sadi/params/Main.java
/home/sadnana/Downloads/dev/SADIServiceGenerator/src/main/java/ca/unbsj/cbakerlab/codegenerator/ServiceDescription.java
/home/sadnana/Downloads/dev/SADIServiceGenerator/src/main/java/ca/unbsj/cbakerlab/sqltemplate/querymanager/sail/query_manager/GenericAnswer.java
/home/sadnana/Downloads/dev/SADIServiceGenerator/src/main/java/ca/unbsj/cbakerlab/sqltemplate/cmdlineutils/ShellUtil.java
/home/sadnana/Downloads/dev/SADIServiceGenerator/src/main/java/ca/unbsj/cbakerlab/sqltemplate/querymanager/sail/query_manager/predicate_views/parser/jaxb/ObjectFactory.java
/home/sadnana/Downloads/dev/SADIServiceGenerator/src/main/java/ca/unbsj/cbakerlab/sqltemplate/schematicanswers/SchematicAnswersGenerator.java
/home/sadnana/Downloads/dev/SADIServiceGenerator/src/main/java/ca/unbsj/cbakerlab/sqltemplate/querymanager/sail/query_manager/predicate_views/parser/jaxb/PredicateViews.java
/home/sadnana/Downloads/dev/SADIServiceGenerator/src/main/java/ca/unbsj/cbakerlab/sqltemplate/schematicanswers/ResultHandler.java
/home/sadnana/Downloads/dev/SADIServiceGenerator/src/main/java/ca/unbsj/cbakerlab/sadi/params/ServiceParamExtractor.java
/home/sadnana/Downloads/dev/SADIServiceGenerator/src/main/java/ca/unbsj/cbakerlab/sqltemplate/querymanager/sail/query_manager/TableQueryPattern.java
/home/sadnana/Downloads/dev/SADIServiceGenerator/src/main/java/ca/unbsj/cbakerlab/Utility/Utilities.java
/home/sadnana/Downloads/dev/SADIServiceGenerator/src/main/java/ca/unbsj/cbakerlab/sqltemplate/TemplateSQLQueryGenerator.java
/home/sadnana/Downloads/dev/SADIServiceGenerator/src/main/java/ca/unbsj/cbakerlab/codegenerator/HasModifableURI.java
/home/sadnana/Downloads/dev/SADIServiceGenerator/src/main/java/ca/unbsj/cbakerlab/sqltemplate/cmdlineutils/AutoGenerateSADIException.java
/home/sadnana/Downloads/dev/SADIServiceGenerator/src/main/java/ca/unbsj/cbakerlab/sqltemplate/querymanager/sail/query_manager/predicate_views/parser/Parser.java
/home/sadnana/Downloads/dev/SADIServiceGenerator/src/main/java/ca/unbsj/cbakerlab/sadi/params/Pipeline.java
/home/sadnana/Downloads/dev/SADIServiceGenerator/src/main/java/ca/unbsj/cbakerlab/sqltemplate/querymanager/sail/query_manager/predicate_views/PredicateView.java
/home/sadnana/Downloads/dev/SADIServiceGenerator/src/main/java/ca/unbsj/cbakerlab/sqltemplate/schematicanswers/CommandLineArgsBuilder.java
/home/sadnana/Downloads/dev/SADIServiceGenerator/src/main/java/ca/unbsj/cbakerlab/codegenerator/HasURI.java
/home/sadnana/Downloads/dev/SADIServiceGenerator/src/main/java/ca/unbsj/cbakerlab/sqltemplate/querymanager/sail/query_manager/SQLQuery.java
/home/sadnana/Downloads/dev/SADIServiceGenerator/src/main/java/ca/unbsj/cbakerlab/sqltemplate/querymanager/SAILQueryManager.java
/home/sadnana/Downloads/dev/SADIServiceGenerator/src/main/java/ca/unbsj/cbakerlab/sqltemplate/querymanager/sail/query_manager/SQLGenerator.java
/home/sadnana/Downloads/dev/SADIServiceGenerator/src/main/java/ca/unbsj/cbakerlab/sqltemplate/querymanager/sail/query_manager/predicate_views/TestPredicate.java
/home/sadnana/Downloads/dev/SADIServiceGenerator/src/main/java/ca/unbsj/cbakerlab/sadi/params/ServiceGenerationException.java
/home/sadnana/Downloads/dev/SADIServiceGenerator/src/main/java/ca/unbsj/cbakerlab/codegenerator/ServiceBean.java
/home/sadnana/Downloads/dev/SADIServiceGenerator/src/main/java/ca/unbsj/cbakerlab/sqltemplate/schematicanswers/ExecutionEngine.java
/home/sadnana/Downloads/dev/SADIServiceGenerator/src/main/java/ca/unbsj/cbakerlab/sqltemplate/cmdlineutils/IOUtil.java
